…
brfss_clean
```

    ## # A tibble: 10,625 × 23
    ##     year state county   class  topic  question   response sample_size data_value
    ##    <int> <chr> <chr>    <chr>  <chr>  <chr>      <ord>          <int>      <dbl>
    ##  1  2010 AL    Jeffers… Healt… Overa… How is yo… Poor              45        5.5
    ##  2  2010 AL    Mobile … Healt… Overa… How is yo… Poor              66        6.4
    ##  3  2010 AL    Tuscalo… Healt… Overa… How is yo… Poor              35        4.2
    ##  4  2010 AZ    Maricop… Healt… Overa… How is yo… Poor              62        3.5
    ##  5  2010 AZ    Pima Co… Healt… Overa… How is yo… Poor              49        5.7
    ##  6  2010 AZ    Pinal C… Healt… Overa… How is yo… Poor              30        4  
    ##  7  2010 AR    Benton … Healt… Overa… How is yo… Poor              21        3  
    ##  8  2010 AR    Pulaski… Healt… Overa… How is yo… Poor              36        3.8
    ##  9  2010 AR    Washing… Healt… Overa… How is yo… Poor              16        2.4
    ## 10  2010 CA    Alameda… Healt… Overa… How is yo… Poor              23        2.4
    ## # … with 10,615 more rows, and 14 more variables: confidence_limit_low <dbl>,
    ## #   confidence_limit_high <dbl>, display_order <int>, data_value_unit <chr>,
    ## #   data_value_type <chr>, data_value_footnote_symbol <chr>,
    ## #   data_value_footnote <chr>, data_source <chr>, class_id <chr>,
    ## #   topic_id <chr>, location_id <chr>, question_id <chr>, respid <chr>,
    ## #   geo_location <chr>
…
    ## `summarise()` has grouped output by 'year'. You can override using the `.groups` argument.

``` r
excellent_response
```

    ## # A tibble: 443 × 3
    ## # Groups:   year [9]
    ##     year state average_data_value
    ##    <int> <chr>              <dbl>
    ##  1  2002 AK                  27.9
    ##  2  2002 AL                  18.5
    ##  3  2002 AR                  24.1
    ##  4  2002 AZ                  24.1
    ##  5  2002 CA                  22.7
    ##  6  2002 CO                  23.1
    ##  7  2002 CT                  29.1
    ##  8  2002 DC                  29.3
    ##  9  2002 DE                  20.9
    ## 10  2002 FL                  25.7
    ## # … with 433 more rows
…
